…
References:

Machine Learning Basics - Random Forest at Shirin’s Playground

Penguin Random Forest Model withrandomForest

Using the penguins dataset and Random Forest Classification.

penguins

## # A tibble: 344 × 8
##    species island    bill_length_mm bill_depth_mm flipper_length_mm body_mass_g sex     year
##    <fct>   <fct>              <dbl>         <dbl>             <int>       <int> <fct>  <int>
##  1 Adelie  Torgersen           39.1          18.7               181        3750 male    2007
##  2 Adelie  Torgersen           39.5          17.4               186        3800 female  2007
##  3 Adelie  Torgersen           40.3          18                 195        3250 female  2007
##  4 Adelie  Torgersen           NA            NA                  NA          NA <NA>    2007
##  5 Adelie  Torgersen           36.7          19.3               193        3450 female  2007
##  6 Adelie  Torgersen           39.3          20.6               190        3650 male    2007
##  7 Adelie  Torgersen           38.9          17.8               181        3625 female  2007
##  8 Adelie  Torgersen           39.2          19.6               195        4675 male    2007
##  9 Adelie  Torgersen           34.1          18.1               193        3475 <NA>    2007
## 10 Adelie  Torgersen           42            20.2               190        4250 <NA>    2007
## # … with 334 more rows
…
### Using broom on the penguin model

penguin_split

## <Training/Testing/Total>
## <199/134/333>

penguin_split %>% broom::tidy()

## # A tibble: 333 × 2
##      Row Data    
##    <int> <chr>   
##  1     1 Analysis
##  2     5 Analysis
##  3     7 Analysis
##  4     8 Analysis
##  5    10 Analysis
##  6    12 Analysis
##  7    13 Analysis
##  8    14 Analysis
##  9    15 Analysis
## 10    16 Analysis
## # … with 323 more rows
…
penguin_test_baked

## # A tibble: 134 × 8
##    island    bill_length_mm bill_depth_mm flipper_length_mm body_mass_g sex     year species
##    <fct>              <dbl>         <dbl>             <dbl>       <dbl> <fct>  <dbl> <fct>  
##  1 Torgersen         -0.822         0.119            -1.07       -0.506 female -1.28 Adelie 
##  2 Torgersen         -0.675         0.424            -0.426      -1.19  female -1.28 Adelie 
##  3 Torgersen         -1.33          1.08             -0.568      -0.940 female -1.28 Adelie 
##  4 Torgersen         -0.931         0.323            -1.42       -0.723 female -1.28 Adelie 
##  5 Torgersen         -0.986         2.05             -0.711      -0.506 male   -1.28 Adelie 
##  6 Torgersen         -1.35          0.323            -1.14       -0.630 female -1.28 Adelie 
##  7 Biscoe            -1.06          0.475            -1.14       -0.319 male   -1.28 Adelie 
##  8 Biscoe            -0.639         0.373            -0.997      -1.25  female -1.28 Adelie 
##  9 Biscoe            -0.639         0.881            -1.50       -0.319 male   -1.28 Adelie 
## 10 Dream             -1.24          0.475            -1.64       -0.381 male   -1.28 Adelie 
## # … with 124 more rows
…
This has created the recipe() and prepped it too.
We now need to apply it to our datasets:

Take training data and bake() it to prepare it for modelling.

Do the same for the testing set.

iris_training_baked <- 
  iris_split %>% 
  training() %>% 
  bake(iris_recipe,.)
iris_training_baked

## # A tibble: 90 × 4
##    Sepal.Length Sepal.Width Petal.Width Species   
##           <dbl>       <dbl>       <dbl> <fct>     
##  1        1.16        0.150      0.311  versicolor
##  2       -0.527      -1.63      -0.233  versicolor
##  3        0.917       0.150      0.175  versicolor
##  4       -1.01        1.93      -1.46   setosa    
##  5        1.76       -0.613      0.855  virginica 
##  6        0.436      -1.38       0.311  versicolor
##  7        0.917       0.150      1.54   virginica 
##  8       -0.406      -0.359      0.0393 versicolor
##  9       -1.13        0.912     -1.18   setosa    
## 10       -0.286      -0.613      0.0393 versicolor
## # … with 80 more rows

iris_testing_baked <- 
  iris_split %>% 
  testing() %>% 
  bake(iris_recipe,.)
iris_testing_baked 

## # A tibble: 60 × 4
##    Sepal.Length Sepal.Width Petal.Width Species
##           <dbl>       <dbl>       <dbl> <fct>  
##  1       -1.25       -0.104       -1.46 setosa 
##  2       -1.61        0.150       -1.46 setosa 
##  3       -0.647       2.18        -1.18 setosa 
##  4       -1.61        0.912       -1.32 setosa 
##  5       -1.13        0.912       -1.46 setosa 
##  6       -1.37        0.912       -1.46 setosa 
##  7       -1.37       -0.104       -1.59 setosa 
##  8       -1.97       -0.104       -1.59 setosa 
##  9       -0.166       2.44        -1.46 setosa 
## 10       -0.647       2.18        -1.18 setosa 
## # … with 50 more rows
…
