…
mosaic::inspect(births_2000_2014)

## 
## quantitative variables:  
##            name   class  min   Q1 median    Q3   max         mean          sd    n missing
## 1          year numeric 2000 2003   2007  2011  2014  2006.999270    4.321085 5479       0
## 2         month numeric    1    4      7    10    12     6.522723    3.449075 5479       0
## 3 date_of_month numeric    1    8     16    23    31    15.730243    8.801151 5479       0
## 4   day_of_week numeric    1    2      4     6     7     3.999817    2.000502 5479       0
## 5        births numeric 5728 8740  12343 13082 16081 11350.068261 2325.821049 5479       0

So there are several numerical variables for year, month, and day_of_month, day_of_week, and of course the births on a daily basis. We will create a date column with these separate ones above, and then plot the births, say for the month of March, in each year:

## # A tsibble: 5,479 x 4 [1D]
## # Key:       births [3,381]
##    date       births date_of_month day_of_week
##    <date>      <dbl>         <dbl>       <dbl>
##  1 2011-12-25   5728            25           7
##  2 2010-12-25   6159            25           6
##  3 2009-12-25   6160            25           5
##  4 2005-12-25   6224            25           7
##  5 2004-12-25   6259            25           6
##  6 2012-12-25   6325            25           2
##  7 2006-12-25   6409            25           1
##  8 2008-12-25   6471            25           4
##  9 2012-03-11   6497            11           7
## 10 2011-01-02   6540             2           7
## # … with 5,469 more rows
…
