…
pop_mean_height

## [1] 168.3497

pop_sd_height

## [1] 10.15705

Now, we will sample ONCE from the NHANES Height variable. Let us take a sample of sample size 50. We will compare sample statistics with population parameters on the basis of this ONE sample of 50:

sample_height <- sample(NHANES_adult, size = 50) %>% select(Height)
sample_height

## # A tibble: 50 × 1
##    Height
##     <dbl>
##  1   172 
##  2   159.
##  3   171 
##  4   159.
##  5   156.
##  6   170.
##  7   148.
##  8   159.
##  9   168.
## 10   159.
## # … with 40 more rows
…
