…
Sample Values

Most examples in this exposition are based on three “imaginary” samples,
\(x, y, y2\). Each is normally distributed and made up of 50 observations. The means are (\(mu = c(0,0.3,0.5)\)), and the sds (\(sd = c(1,2,1.5)\)) are

## # A tibble: 3 × 2
##      mu    sd
##   <dbl> <dbl>
## 1   0     1  
## 2   0.3   2  
## 3   0.5   1.5

Let us look at our toy data in three ways:

## # A tibble: 50 × 3
##     x[,1] y1[,1] y2[,1]
##     <dbl>  <dbl>  <dbl>
##  1  0.427  1.98   0.103
##  2  0.444  1.27  -0.281
##  3 -0.828 -0.944  0.624
##  4 -0.799  0.103  5.43 
##  5 -0.323  2.19   0.168
##  6 -1.24   0.192 -0.549
##  7 -1.36   4.81   0.309
##  8  1.62   1.55  -0.990
##  9 -0.292  3.36  -0.172
## 10 -1.25   1.92  -0.158
## # … with 40 more rows

## # A tibble: 150 × 2
##    group value[,1]
##    <chr>     <dbl>
##  1 x         0.427
##  2 y1        1.98 
##  3 y2        0.103
##  4 x         0.444
##  5 y1        1.27 
##  6 y2       -0.281
##  7 x        -0.828
##  8 y1       -0.944
##  9 y2        0.624
## 10 x        -0.799
## # … with 140 more rows

## # A tibble: 100 × 2
##    group value[,1]
##    <chr>     <dbl>
##  1 y1        1.98 
##  2 y2        0.103
##  3 y1        1.27 
##  4 y2       -0.281
##  5 y1       -0.944
##  6 y2        0.624
##  7 y1        0.103
##  8 y2        5.43 
##  9 y1        2.19 
## 10 y2        0.168
## # … with 90 more rows
…
