…
##          Point Forecast    Lo 80    Hi 80    Lo 95    Hi 95
## 2013.000       116571.1 109554.8 123587.5 105840.6 127301.7
## 2013.019       126102.0 119038.7 133165.2 115299.7 136904.3
## 2013.038       120871.5 113761.7 127981.4 109998.0 131745.1
## 2013.058       111934.8 104778.7 119091.0 100990.5 122879.2
## 2013.077       119470.2 112268.0 126672.3 108455.5 130484.9
## 2013.096       126904.7 119656.9 134152.5 115820.1 137989.3
## 2013.115       133382.4 126089.2 140675.6 122228.3 144536.5
## 2013.135       118094.6 110756.3 125433.0 106871.6 129317.7
## 2013.154       128769.9 121386.7 136153.1 117478.2 140061.6
## 2013.173       139022.7 131594.8 146450.5 127662.8 150382.5
## 2013.192       130502.1 123030.0 137974.3 119074.5 141929.8
## 2013.212       124236.7 116720.5 131752.9 112741.7 135731.7

## # A tibble: 324 × 7
##    index key      value lo.80 lo.95 hi.80 hi.95
##    <dbl> <chr>    <dbl> <dbl> <dbl> <dbl> <dbl>
##  1 2010  actual 106690.    NA    NA    NA    NA
##  2 2010. actual 111390.    NA    NA    NA    NA
##  3 2010. actual 107952.    NA    NA    NA    NA
##  4 2010. actual 103653.    NA    NA    NA    NA
##  5 2010. actual 112808.    NA    NA    NA    NA
##  6 2010. actual 112048.    NA    NA    NA    NA
##  7 2010. actual 117716.    NA    NA    NA    NA
##  8 2010. actual 113117.    NA    NA    NA    NA
##  9 2010. actual 111466.    NA    NA    NA    NA
## 10 2010. actual 116771.    NA    NA    NA    NA
## # ℹ 314 more rows

## # A tibble: 324 × 8
##    index key      value lo.80 lo.95 hi.80 hi.95 actual_date
##    <dbl> <chr>    <dbl> <dbl> <dbl> <dbl> <dbl> <date>     
##  1 2010  actual 106690.    NA    NA    NA    NA 1975-07-04 
##  2 2010. actual 111390.    NA    NA    NA    NA 1975-07-04 
##  3 2010. actual 107952.    NA    NA    NA    NA 1975-07-04 
##  4 2010. actual 103653.    NA    NA    NA    NA 1975-07-04 
##  5 2010. actual 112808.    NA    NA    NA    NA 1975-07-04 
##  6 2010. actual 112048.    NA    NA    NA    NA 1975-07-04 
##  7 2010. actual 117716.    NA    NA    NA    NA 1975-07-04 
##  8 2010. actual 113117.    NA    NA    NA    NA 1975-07-04 
##  9 2010. actual 111466.    NA    NA    NA    NA 1975-07-04 
## 10 2010. actual 116771.    NA    NA    NA    NA 1975-07-04 
## # ℹ 314 more rows
…
