…
What graphs will we see today?

Some of the very basic and commonly used plots for data are:
- Bar and Column Charts
- Histograms and Frequency Distributions
- Scatter Plots (if there is more than one quant variable)
and
- 2D Hexbins Plots and 2D Frequency Distributions (horrors?)

An Example: Bar and Column Charts

Here is a dataset from Jeremy Singer-Vine’s blog, Data Is Plural. This is a list of all books banned in schools across the US.

## # A tibble: 1,586 × 10
##    author  title type_of_ban secondary_author_s illustrator_s translator_s state
##    <chr>   <chr> <chr>       <chr>              <chr>         <chr>        <chr>
##  1 Àbíké-… Ace … Banned fro… <NA>               <NA>          <NA>         Flor…
##  2 Aceved… Clap… Banned fro… <NA>               <NA>          <NA>         Penn…
##  3 Aceved… The … Banned fro… <NA>               <NA>          <NA>         Flor…
##  4 Aceved… The … Banned fro… <NA>               <NA>          <NA>         New …
##  5 Aceved… The … Banned Pen… <NA>               <NA>          <NA>         Texas
##  6 Aceved… The … Banned Pen… <NA>               <NA>          <NA>         Virg…
##  7 Aciman… Call… Banned Pen… <NA>               <NA>          <NA>         Virg…
##  8 Acito,… How … Banned Pen… <NA>               <NA>          <NA>         Flor…
##  9 Adeyoh… 47,0… Banned fro… Adeyoha, Angel     McGillis, Ho… <NA>         Penn…
## 10 Adichi… Half… Banned fro… <NA>               <NA>          <NA>         Mich…
## # ℹ 1,576 more rows
## # ℹ 3 more variables: district <chr>, date_of_challenge_removal <chr>,
## #   origin_of_challenge <chr>

 Banned Books data

banned_by_state <- banned %>% 
  group_by(state) %>% 
  summarise(total = n())
banned_by_state

## # A tibble: 26 × 2
##    state    total
##    <chr>    <int>
##  1 Alaska       1
##  2 Arkansas     1
##  3 Florida    204
##  4 Georgia     13
##  5 Illinois     4
##  6 Indiana     18
##  7 Iowa         4
##  8 Kansas      30
##  9 Maryland     1
## 10 Michigan     2
## # ℹ 16 more rows
…
