Slides 03
…
---

2. What is the first painting acquired by MoMA? Which year? Which artist? What title?
    - *Hint: you may want to look into `select` + `arrange`*

```r
moma %>% 
  select(year_acquired) %>% 
  arrange(year_acquired)
```

```
# A tibble: 2,253 × 1
   year_acquired
           <dbl>
 1          1930
 2          1930
 3          1931
 4          1931
 5          1932
 6          1934
 7          1934
 8          1934
 9          1934
10          1934
# … with 2,243 more rows
# ℹ Use `print(n = ...)` to see more rows
```

```r
moma %>% 
  select(title,artist,year_acquired) %>% 
  arrange(year_acquired)
```

```
# A tibble: 2,253 × 3
   title                                               artist            year_acquired
   <chr>                                               <chr>                     <dbl>
 1 House by the Railroad                               Edward Hopper              1930
 2 Seated Nude                                         Bernard Karfiol            1930
 3 Daylight Savings Time                               Pierre Roy                 1931
 4 Plums on a Plate                                    Preston Dickinson          1931
 5 Dr. Mayer-Hermann                                   Otto Dix                   1932
 6 The Bather                                          Paul Cézanne               1934
 7 Pines and Rocks (Fontainebleau?)                    Paul Cézanne               1934
 8 Still Life with Ginger Jar, Sugar Bowl, and Oranges Paul Cézanne               1934
 9 Still Life with Apples                              Paul Cézanne               1934
10 Italian Landscape                                   Arthur B. Davies           1934
# … with 2,243 more rows
# ℹ Use `print(n = ...)` to see more rows
```

---

1. What is the oldest painting in the collection? Which year? Which artist? What title? *(see above hint)*

```r
moma %>% 
  select(title,artist,year_created) %>% 
  arrange(year_created)
```

```
# A tibble: 2,253 × 3
   title                                    artist       year_created
   <chr>                                    <chr>               <dbl>
 1 Landscape at Daybreak                    Odilon Redon         1872
 2 Apache (Man on Horseback)                Odilon Redon         1875
 3 Apache (Man on Horseback II)             Odilon Redon         1875
 4 Fishing Boat                             Odilon Redon         1875
 5 Rocky Peak                               Odilon Redon         1875
 6 The Rocky Slope                          Odilon Redon         1875
 7 Landscape with Rocks, near Royan         Odilon Redon         1875
 8 Still Life with Fruit Dish               Paul Cézanne         1879
 9 L'Estaque                                Paul Cézanne         1879
10 On the Cliff at Pourville, Clear Weather Claude Monet         1882
# … with 2,243 more rows
# ℹ Use `print(n = ...)` to see more rows
```
…
---

1. Which artist has the most paintings in the collection? How many paintings are by this artist?

```r
moma %>% 
  group_by(artist) %>% 
  summarise(paintings = n()) %>% 
  arrange(desc(paintings))
```

```
# A tibble: 989 × 2
   artist           paintings
   <chr>                <int>
 1 Pablo Picasso           55
 2 Henri Matisse           32
 3 On Kawara               32
 4 Jacob Lawrence          30
 5 Batiste Madalena        25
 6 Jean Dubuffet           25
 7 Odilon Redon            25
 8 Ben Vautier             24
 9 Frank Stella            23
10 Philip Guston           23
# … with 979 more rows
# ℹ Use `print(n = ...)` to see more rows
```
…
---

1. In what year was the first painting by a (solo) female artist acquired? When was that painting created? Which artist? What title?

```r
moma %>% 
  select(title, artist, year_acquired, artist_gender) %>%  arrange(year_acquired, artist_gender)
```

```
# A tibble: 2,253 × 4
   title                                               artist            year_acquired artist_gender
   <chr>                                               <chr>                     <dbl> <chr>        
 1 House by the Railroad                               Edward Hopper              1930 Male         
 2 Seated Nude                                         Bernard Karfiol            1930 Male         
 3 Daylight Savings Time                               Pierre Roy                 1931 Male         
 4 Plums on a Plate                                    Preston Dickinson          1931 Male         
 5 Dr. Mayer-Hermann                                   Otto Dix                   1932 Male         
 6 The Bather                                          Paul Cézanne               1934 Male         
 7 Pines and Rocks (Fontainebleau?)                    Paul Cézanne               1934 Male         
 8 Still Life with Ginger Jar, Sugar Bowl, and Oranges Paul Cézanne               1934 Male         
 9 Still Life with Apples                              Paul Cézanne               1934 Male         
10 Italian Landscape                                   Arthur B. Davies           1934 Male         
# … with 2,243 more rows
# ℹ Use `print(n = ...)` to see more rows
```
…
