…
References:

Machine Learning Basics - Random Forest at Shirin’s Playground

Penguin Random Forest Model withrandomForest

Using the penguins dataset and Random Forest Classification.

penguins

## # A tibble: 344 x 8
##    species island    bill_length_mm bill_depth_mm flipper_length_mm body_mass_g
##    <fct>   <fct>              <dbl>         <dbl>             <int>       <int>
##  1 Adelie  Torgersen           39.1          18.7               181        3750
##  2 Adelie  Torgersen           39.5          17.4               186        3800
##  3 Adelie  Torgersen           40.3          18                 195        3250
##  4 Adelie  Torgersen           NA            NA                  NA          NA
##  5 Adelie  Torgersen           36.7          19.3               193        3450
##  6 Adelie  Torgersen           39.3          20.6               190        3650
##  7 Adelie  Torgersen           38.9          17.8               181        3625
##  8 Adelie  Torgersen           39.2          19.6               195        4675
##  9 Adelie  Torgersen           34.1          18.1               193        3475
## 10 Adelie  Torgersen           42            20.2               190        4250
## # ... with 334 more rows, and 2 more variables: sex <fct>, year <int>
…
### Using broom on the penguin model

penguin_split

## <Analysis/Assess/Total>
## <199/134/333>

penguin_split %>% broom::tidy()

## # A tibble: 333 x 2
##      Row Data    
##    <int> <chr>   
##  1     1 Analysis
##  2     3 Analysis
##  3     4 Analysis
##  4     6 Analysis
##  5     8 Analysis
##  6     9 Analysis
##  7    10 Analysis
##  8    12 Analysis
##  9    13 Analysis
## 10    14 Analysis
## # ... with 323 more rows
…
penguin_test_baked

## # A tibble: 134 x 8
##    island  bill_length_mm bill_depth_mm flipper_length_~ body_mass_g sex    year
##    <fct>            <dbl>         <dbl>            <dbl>       <dbl> <fct> <dbl>
##  1 Torger~         -0.822        0.119            -1.07       -0.506 fema~ -1.28
##  2 Torger~         -0.858        1.74             -0.782      -0.692 male  -1.28
##  3 Torger~         -0.876        1.24             -0.426       0.581 male  -1.28
##  4 Torger~         -1.35         0.323            -1.14       -0.630 fema~ -1.28
##  5 Biscoe          -1.11         0.729            -2.07       -1.31  fema~ -1.28
##  6 Dream           -1.39        -0.0837           -0.426      -1.10  fema~ -1.28
##  7 Dream           -0.950        1.44             -0.782      -0.319 male  -1.28
##  8 Dream           -1.17         1.08             -1.42       -1.13  fema~ -1.28
##  9 Dream           -0.767        0.983            -1.21        0.550 male  -1.28
## 10 Dream           -0.584        0.627            -0.426      -0.381 male  -1.28
## # ... with 124 more rows, and 1 more variable: species <fct>
…
This has created the recipe() and prepped it too.
We now need to apply it to our datasets:

Take training data and bake() it to prepare it for modelling.

Do the same for the testing set.

iris_training_baked <- 
  iris_split %>% 
  training() %>% 
  bake(iris_recipe,.)
iris_training_baked

## # A tibble: 90 x 4
##    Sepal.Length Sepal.Width Petal.Width Species   
##           <dbl>       <dbl>       <dbl> <fct>     
##  1       0.850       -0.105       1.31  virginica 
##  2      -1.42         0.345      -1.33  setosa    
##  3      -0.410       -1.46       -0.277 versicolor
##  4       1.73        -0.105       0.514 virginica 
##  5      -0.0322      -0.555       1.57  virginica 
##  6       1.23        -0.105       1.17  virginica 
##  7      -0.915        1.47       -1.07  setosa    
##  8       0.598       -1.68        0.119 versicolor
##  9       0.976       -0.105       0.251 versicolor
## 10      -1.17        -1.46       -0.277 versicolor
## # ... with 80 more rows

iris_testing_baked <- 
  iris_split %>% 
  testing() %>% 
  bake(iris_recipe,.)
iris_testing_baked 

## # A tibble: 60 x 4
##    Sepal.Length Sepal.Width Petal.Width Species
##           <dbl>       <dbl>       <dbl> <fct>  
##  1       -0.915       1.02       -1.33  setosa 
##  2       -1.55        0.795      -1.20  setosa 
##  3       -1.17        0.120      -1.46  setosa 
##  4       -1.29        0.795      -1.33  setosa 
##  5       -1.29       -0.105      -1.46  setosa 
##  6       -0.915       1.02       -1.20  setosa 
##  7       -0.158       1.70       -1.20  setosa 
##  8       -0.915       1.70       -1.20  setosa 
##  9       -0.537       0.795      -1.33  setosa 
## 10       -0.915       0.570      -0.936 setosa 
## # ... with 50 more rows
…
