…
Hence a total of 8 Tests were created by 8 pairs of students, and each team tested the remaining 15 students ( Due to COVID restrictions, this testing was carried out entirely online on MS Teams, using individual breakout rooms for the Test Teams. )

The data were entered into a Google Sheet and the STM scores were converted to percentages so as to be comparable across WL.

The data was then “flattened” for each of the binary parameters; this was logical to do since for each parameter, the other two parameters were balanced out by the Test structure. For instance, for WL = 5, the SL and ST parameters used all the four combinations ( SL = 5, 15 ) and (ST = 15, 30 ). Hence the “common sense” analysis could proceed for each of the parameters individually. Joint effects were not considered for this preliminary class.

Data

stm <- readxl::read_xlsx("Random Testers.xlsx",
                         sheet = "Data",
                         range = "C31:H91") %>% 
  janitor::clean_names()
stm

## # A tibble: 60 x 6
##    syllable_2 syllable_5 study_time_15 study_time_30 list_length_7
##         <dbl>      <dbl>         <dbl>         <dbl>         <dbl>
##  1      0.714      0.571         0.714         0.714         0.714
##  2      0.429      0.571         0.429         0.571         0.429
##  3      0.571      0.714         0.571         0.571         0.571
##  4      0.714      1             0.714         0.571         0.714
##  5      0.714      1             0.714         1             0.714
##  6      0.714      0.857         0.714         0.714         0.714
##  7      0.571      0.571         0.571         0.571         0.571
##  8      0.571      0.714         0.571         0.571         0.571
##  9      0.571      0.857         0.571         1             0.571
## 10      0.571      1             0.571         0.429         0.571
## # ... with 50 more rows, and 1 more variable: list_length_15 <dbl>
…
We will use Box Plots to compare the STM score distributions for each Parameter. To do this we need to pivot_long the adjacent columns ( e.g. syllable_2 and syllable_5) and use these names as categorical variables:

Syllable Parameter SL

stm_syllable <- stm %>%
  select(contains("syllable")) %>%
  pivot_longer(
    data = .,
    cols = starts_with("syllable"),
    names_to = "syllable",
    values_to = "syl_scores"
  )
stm_syllable

## # A tibble: 120 x 2
##    syllable   syl_scores
##    <chr>           <dbl>
##  1 syllable_2      0.714
##  2 syllable_5      0.571
##  3 syllable_2      0.429
##  4 syllable_5      0.571
##  5 syllable_2      0.571
##  6 syllable_5      0.714
##  7 syllable_2      0.714
##  8 syllable_5      1    
##  9 syllable_2      0.714
## 10 syllable_5      1    
## # ... with 110 more rows
…
<img src="{{< blogdown/postref >}}index_files/figure-html/plots-1-1.png" width="672" />

Study Time Parameter ST

stm_studytime <- stm %>%
  select(contains("study")) %>%
  pivot_longer(
    data = .,
    cols = starts_with("study"),
    names_to = "study",
    values_to = "study_scores"
  )
stm_studytime

## # A tibble: 120 x 2
##    study         study_scores
##    <chr>                <dbl>
##  1 study_time_15        0.714
##  2 study_time_30        0.714
##  3 study_time_15        0.429
##  4 study_time_30        0.571
##  5 study_time_15        0.571
##  6 study_time_30        0.571
##  7 study_time_15        0.714
##  8 study_time_30        0.571
##  9 study_time_15        0.714
## 10 study_time_30        1    
## # ... with 110 more rows
…
patchwork::wrap_plots(p1 + p2, guides = "collect")

<img src="{{< blogdown/postref >}}index_files/figure-html/plots-2-1.png" width="672" />

Word List Length Parameter WL

stm_words <- stm %>% 
  select(contains("list")) %>% 
  pivot_longer(data = ., cols = starts_with("list"), 
               names_to = "list", values_to = "list_scores")
stm_words

## # A tibble: 120 x 2
##    list           list_scores
##    <chr>                <dbl>
##  1 list_length_7       0.714 
##  2 list_length_15      0.267 
##  3 list_length_7       0.429 
##  4 list_length_15      0.2   
##  5 list_length_7       0.571 
##  6 list_length_15      0.0667
##  7 list_length_7       0.714 
##  8 list_length_15      0.133 
##  9 list_length_7       0.714 
## 10 list_length_15      0.2   
## # ... with 110 more rows
…
