…
The Correlation Test

One of the basic Questions we would have of our data is:
Does some variable depend upon another in some way?
Does \(y\) depend upon \(x\)?

A Correlation Test is designed to answer exactly this question.

Let us now see how a Correlation Test can be re-formulated as
a Linear Model + Hypothesis Test.

Now we look at the numbers, using some toy data first and then a real dataset.

## # A tibble: 500 × 3
##      x[,1]  y[,1] y2[,1]
##      <dbl>  <dbl>  <dbl>
##  1  0.570  -0.788 -0.748
##  2  1.12    1.27   3.36 
##  3  1.90    0.486 -2.54 
##  4 -0.862  -4.22   1.09 
##  5 -0.798  -0.589  1.66 
##  6 -1.66    2.66   2.30 
##  7 -0.0842  2.04   0.858
##  8  1.08   -0.628  1.82 
##  9  0.783  -0.272  1.14 
## 10  0.708   2.10   1.61 
## # … with 490 more rows

## # A tibble: 1,500 × 2
##    group value[,1]
##    <chr>     <dbl>
##  1 x         0.570
##  2 y        -0.788
##  3 y2       -0.748
##  4 x         1.12 
##  5 y         1.27 
##  6 y2        3.36 
##  7 x         1.90 
##  8 y         0.486
##  9 y2       -2.54 
## 10 x        -0.862
## # … with 1,490 more rows

## # A tibble: 1,000 × 2
##    group value[,1]
##    <chr>     <dbl>
##  1 y        -0.788
##  2 y2       -0.748
##  3 y         1.27 
##  4 y2        3.36 
##  5 y         0.486
##  6 y2       -2.54 
##  7 y        -4.22 
##  8 y2        1.09 
##  9 y        -0.589
## 10 y2        1.66 
## # … with 990 more rows
…
