…
tbl_graph(nodes, links, directed = TRUE)%>% 
  activate(edges) %>% 
  as_tibble()

## # A tibble: 49 × 4
##     from    to type      weight
##    <int> <int> <chr>      <int>
##  1     1     2 hyperlink     22
##  2     1     3 hyperlink     22
##  3     1     4 hyperlink     21
##  4     1    15 mention       20
##  5     2     1 hyperlink     23
##  6     2     3 hyperlink     21
##  7     2     9 hyperlink      1
##  8     2    10 hyperlink      5
##  9     3     1 hyperlink     21
## 10     3     4 hyperlink     22
## # ℹ 39 more rows
…
# Basic igraph plot
plot(net2,vertex.label = NA)

<img src="{{< blogdown/postref >}}index_files/figure-html/unnamed-chunk-14-1.png" width="672" />

# using tidygraph
# For all objects that are not node and edge data_frames
# tidygraph uses `as_tbl_graph()`
# 
graph <- as_tbl_graph(links2)
graph %>% activate(nodes) %>% as_tibble()

## # A tibble: 30 × 2
##    type  name 
##    <lgl> <chr>
##  1 FALSE s01  
##  2 FALSE s02  
##  3 FALSE s03  
##  4 FALSE s04  
##  5 FALSE s05  
##  6 FALSE s06  
##  7 FALSE s07  
##  8 FALSE s08  
##  9 FALSE s09  
## 10 FALSE s10  
## # ℹ 20 more rows

graph %>% activate(edges) %>% as_tibble()

## # A tibble: 31 × 3
##     from    to weight
##    <int> <int>  <dbl>
##  1     1    11      1
##  2     1    12      1
##  3     1    13      1
##  4     2    14      1
##  5     2    15      1
##  6     2    30      1
##  7     3    16      1
##  8     3    17      1
##  9     3    18      1
## 10     3    19      1
## # ℹ 21 more rows
…
